2 Data – The Billboard Hot 100 #1 Songs: What the Top Tells Us About the Evolution of Music
…
front_person_age

As per the data documentation, “If [front_person_age is] blank, then the age(s) could not be accurately located or age did not make sense (i.e., the band was animated)”.

Code

front_person_missing <- billboard |>
  filter(is.na(front_person_age))

front_person_missing

# A tibble: 22 × 105
   song  artist date                weeks_at_number_one non_consecutive rating_1
   <chr> <chr>  <dttm>                            <dbl>           <dbl>    <dbl>
 1 Blue… The M… 1961-04-03 00:00:00                   3               0        8
 2 The … The T… 1961-12-18 00:00:00                   3               0        9
 3 Tels… The T… 1962-12-22 00:00:00                   3               0        8
 4 So M… The T… 1963-08-03 00:00:00                   1               0        8
 5 Ince… Straw… 1967-11-25 00:00:00                   1               0        3
 6 Suga… The A… 1969-09-20 00:00:00                   4               0        7
 7 Want… Honey… 1971-06-12 00:00:00                   1               0        7
 8 TSOP… MFSB   1974-04-20 00:00:00                   2               0        8
 9 Bill… Bo Do… 1974-06-15 00:00:00                   2               0        2
10 Fire  Ohio … 1975-02-08 00:00:00                   1               0        8
# ℹ 12 more rows
# ℹ 99 more variables: rating_2 <dbl>, rating_3 <dbl>, overall_rating <dbl>,
#   divisiveness <dbl>, label <chr>, parent_label <chr>, cdr_genre <chr>,
#   cdr_style <chr>, discogs_genre <chr>, discogs_style <chr>,
#   artist_structure <dbl>, featured_artists <chr>,
#   multiple_lead_vocalists <dbl>, group_named_after_non_lead_singer <dbl>,
#   talent_contestant <chr>, posthumous <dbl>, artist_place_of_origin <chr>, …
…
